{"events":[
{"name": "Transition",
   "level": "port",
   "destLevel": "Square",
   "x": 114,
   "y": 53,
   "destX": 14,
   "destY": 82
  },
  {"name": "Transition",
   "level": "port",
   "destLevel": "Square",
   "x": 114,
   "y": 54,
   "destX": 14,
   "destY": 83
  },{"name": "Transition",
   "level": "port",
   "destLevel": "Square",
   "x": 114,
   "y": 55,
   "destX": 14,
   "destY": 84
  },{"name": "Transition",
   "level": "port",
   "destLevel": "Square",
   "x": 114,
   "y": 56,
   "destX": 14,
   "destY": 85
  }
]}