{"states":[
 { "id": "Captain", "state": 0},
 {"id": "Adio", "state": 0},
 {"id": "Darwishi", "state": 0},
 {"id": "Fountain", "state": 0},
 {"id": "Fountain2", "state": 0},
 {"id": "Fountain3", "state": 0},
 {"id": "Fountain4", "state": 0},
 {"id": "Fountain5", "state": 0},
 {"id": "Fountain6", "state": 0},
 {"id": "Fountain7", "state": 0},
 {"id": "Fountain8", "state": 0},
  {"id": "Fountain9", "state": 0},
  {"id": "Fountain10", "state": 0},
 {"id": "Fountain11", "state": 0},
 {"id": "Fountain12", "state": 0},
 {"id": "BlockingFaro", "state": 0},
 {"id": "BlockingFaro2", "state": 0},
 {"id": "BlockingFaro3", "state": 0},
 {"id": "Akil", "state": 0},
 {"id": "Vecina", "state": 0},
 {"id": "NPCSerapeum1", "state": 0},
 {"id": "NPCSerapeum2", "state": 0},
 {"id": "NPCIsland1", "state": 0},
 {"id": "NPCIsland2", "state": 0},
 {"id": "NPCIsland3", "state": 0},
 {"id": "NPCPort1", "state": 0},
 {"id": "NPCPort2", "state": 0},
 {"id": "NPCPort3", "state": 0},
 {"id": "NPCPort4", "state": 0},
 {"id": "NPCSquare1", "state": 0},
 {"id": "NPCSquare2", "state": 0}
]
}