\BOOKMARK [1][-]{section.1}{Mar\355a Arranz Lobo}{}% 1
\BOOKMARK [1][-]{section.2}{\301ngel Ben\355tez G\363mez}{}% 2
\BOOKMARK [1][-]{section.3}{Flavius Abel Ciapsa}{}% 3
\BOOKMARK [1][-]{section.4}{Mart\355n Fern\341ndez de Diego}{}% 4
\BOOKMARK [1][-]{section.5}{Marcos Herrero Agust\355n}{}% 5
\BOOKMARK [1][-]{section.6}{Carlos Mor\341n Alfonso}{}% 6
\BOOKMARK [1][-]{section.7}{Celia Rubio Madrigal}{}% 7
\BOOKMARK [1][-]{section.8}{Carlos Tard\363n Rubio}{}% 8
