{"width": 32,

"height":128,

"entities":[
],

"animations":[
    {"index":0,
    "path": "Bridge\/background",
    "numFrames": 1
    },
    
    {"index":127,
    "path": "Bridge\/foreground",
    "numFrames": 1
    }
],

"sound" : "bb"
}